{
  "type": "service_account",
  "project_id": "project1-266512",
  "private_key_id": "e19483acc57a8f3ccd0a83a523543f8637a8adf1",
  "private_key": "-----BEGIN PRIVATE KEY-----\nMIIEvAIBADANBgkqhkiG9w0BAQEFAASCBKYwggSiAgEAAoIBAQCXzytnYKMOgji/\nX5gK+8aFsbM2hmyjGeige+004lSHE9vuw+DbBfDxSoMbezuYN/1+gLpaP828l3fp\nBG0K6h+mhpRimUaDdPxa+wZwBlLw4rNFzu+ITjW1MiAI1DOsmRq4rdDsNYopOJ00\nLnVSriHU+ihs2LVOQzan7K6Vh8cmmUT+VM9qCgxeW6MC9b5A4t1eXRGSA9pHuY0l\ngApB4jdgeiFSmgP4fy1IFb4gDF/rHWsA8ZWE6f2DxBxRnQSsfkoAiZOn9S6AcTjo\nx6jhdQt2rc5gQJli5gnFATA7PwFvER3lM37kp/wBLRXWXwBz4+Qu3YjRygRdgo3G\n+GIT9TPjAgMBAAECggEAALSRNo8/4rLfMaBvk+l8kCV1uDSir5VQu+InhX3ht6jz\ndiYJ1uqtpmlat5d4fOoRrvNJKl8uhQhNIdOH8CuLTxpD+TtOFRFHlOKisoWNABqF\ni7b87Oy0Gi3r8S6POOeTNLV2CYrsI+nj7RikKeiuNo+c/Xh6Sy1LxTb3zrENT1QY\nI/s0BsRkL3R/MJ77TG+Hsu0F7IrHQROsNUl/l326BRvSAFDZbNmr71UX7vXKhWn4\nY8De8UzZ96H1CIWUxYRYztPjZwcSnDRZgw/FPOIn34oOcoYa9f+iwtd7GovO33YW\nlPgqAFyTGlA4tBVICwbDTntEnox1mX7PtYKxy7vxOQKBgQDVpZ6jd5bUTmG11++S\ndt+LYJbdlQhgG74rlc8DuVUpvuxDR1B58BznSNpk7+pTFXbMuxIGcoSyyp8Nlr6j\nwdnrkxgEvAvxJYE1pjeVRc2xtA3SqxEFPaUbMV7tnoz+5mqwUQAa9Z1UeTp+D6Rw\ntwvEdjRReV9Eg9Od5tH3qAEkGQKBgQC151hstSV9+LQGSmguzRl8fB3DsmiFpK/l\nlqn7MUS95qCw83PLBVwmC9GdPdDvqEJRKKY5mD5kzIt8dkDqtmrtNBwIDmbP1AkN\nbFyKcN3IJrrlyA7Npc2I3kEz4HKaemP5gsJWdenlaxcmcWh8JGqMz0w7SGCJPc3f\nNfwfPKw3WwKBgFB8GRw55B9M+/BWTdFeaO6Hz63gBAy4xtaClD8x5YxZeYYK6p1V\nQH486tFVtG/iSSPtYWf+YlE8ldi3rk/gqmjdvBGkidcpqth8KrpYVpoYW5C+kyXn\nSDjLS5i2vyUTxqNvkFuXpdJ57PgqimdP/eXgJet/js0v4Fu+5eCncO6ZAoGAUScT\nBfyS625nMl9Dt419D1J4HPSdOPJOHwlmcFB8sJQRoKAcSrjrcXXYYGRRsHnKjFas\nQgmv3Fx85lwDfjM/5O9YiieSqqmYGEr9xi2wZDkTLKxiHlEYLzWotTIvLsfnjktN\n1DDq1pU+UMJLsQa2GnfpNJGHr/LIxApbnrv8wP0CgYBCmRyrFm7wDsgpWSte3bzQ\nrmnYx7hwrMpaZM4k0F6wbm9fj3psX7LFH5w94pcFNJh9H8ruHXhkbEmgMWhur3/l\nt/cG8xU83McilurkXABFHk23Eskq4KOAXOh3uI6yCtlsjJr/xbKP6jwbIA8N+E20\nR1186J8MIuC4khxzzuS38w==\n-----END PRIVATE KEY-----\n",
  "client_email": "tester@project1-266512.iam.gserviceaccount.com",
  "client_id": "102915265084688100644",
  "auth_uri": "https://accounts.google.com/o/oauth2/auth",
  "token_uri": "https://oauth2.googleapis.com/token",
  "auth_provider_x509_cert_url": "https://www.googleapis.com/oauth2/v1/certs",
  "client_x509_cert_url": "https://www.googleapis.com/robot/v1/metadata/x509/tester%40project1-266512.iam.gserviceaccount.com"
}
